{
    "port": 1883,
    "backend": {
        "type": "mongo",
        "url": "mongodb://localhost:27017/mqtt",
        "pubsubCollection": "ascoltatori",
        "mongo": {}
    },
	"eventRegistry":{
		"clientId":"tfg_EventRegistry",
		"iaRegistryDbUrl":"mongodb://localhost:27017/ia_registry"
	}
}
